{
    "debug.toolBarLocation": "docked",
    "editor.wordWrap": "off",
    "editor.foldingStrategy": "auto",
    "editor.fontLigatures": true,
    "editor.fontSize": 14,
    "editor.minimap.enabled": true,
    "editor.renderWhitespace": "none",
    "editor.renderControlCharacters": false,
    "editor.rulers": [70, 80],
    "editor.detectIndentation": false,
    "extensions.ignoreRecommendations": true,
    "files.insertFinalNewline": true,
    "files.trimTrailingWhitespace": true,
    "files.trimFinalNewlines": true,
    "git.enabled": false,
    "update.mode": "default",
    "window.zoomLevel": 3,
    "window.restoreFullscreen": true,
    "window.closeWhenEmpty": false,
    "window.restoreWindows": "folders",
    "workbench.editor.labelFormat": "short",
    "workbench.editor.enablePreview": false,
    "workbench.editor.enablePreviewFromQuickOpen": false,
    "workbench.startupEditor": "none",
    "clang.executable": "clang++",
    "C_Cpp.default.browse.databaseFilename": "/home/sem/.vscode/vsc.db",
    "C_Cpp.default.cStandard": "c11",
    "C_Cpp.default.cppStandard": "c++17",
    "[cpp]": {
        "editor.defaultFormatter": "ms-vscode.cpptools"
        //"editor.formatOnSave": true
    },
    "cmake.configureOnOpen": false,
    "window.titleBarStyle": "custom",
    "cmake.generator": "Ninja",
    "C_Cpp.updateChannel": "Insiders",
    "vim.debug.silent": true,
    "vim.easymotion": true,
    "vim.enableNeovim": true,
    "workbench.colorTheme": "Gruvbox Material Dark",
    "workbench.iconTheme": "Monokai Pro Icons",
    "cmake.installPrefix": "./build",
    "cmake.copyCompileCommands": "true",
    "gitlens.advanced.messages": {
        "suppressGitDisabledWarning": true
    },
    "editor.fontFamily": "'InconsolataLGC Mono', 'monospace', monospace, 'Droid Sans Fallback'"
}
